blocks/dsp-fft/sim/testbench.vcd
$date
	Tue Apr 28 05:13:51 2026
$end
$version
	Icarus Verilog
$end
$timescale
	1ps
$end
$scope module tb_stage $end
$scope module DUT $end
$var wire 1 ! clk $end
$var wire 16 " in_imag [15:0] $end
$var wire 16 # in_real [15:0] $end
$var wire 1 $ in_valid $end
$var wire 1 % rst $end
$var wire 1 & out_valid $end
$var wire 16 ' out_real [15:0] $end
$var wire 16 ( out_imag [15:0] $end
$var parameter 32 ) BITS $end
$var parameter 34 * CNT_BITS $end
$var parameter 32 + CURR_STAGE $end
$var parameter 32 , STAGES $end
$var reg 3 - cnt [2:0] $end
$var reg 3 . cnt_d [2:0] $end
$scope begin genblk1 $end
$var wire 16 / tw_re [15:0] $end
$var wire 16 0 tw_im [15:0] $end
$var wire 16 1 rot_re [15:0] $end
$var wire 16 2 rot_im [15:0] $end
$var wire 16 3 b_out_real [15:0] $end
$var wire 16 4 b_out_imag [15:0] $end
$var parameter 33 5 BUFF_BITS $end
$var parameter 34 6 BUFF_SIZE $end
$var parameter 33 7 LATENCY $end
$var parameter 32 8 ROM_DEPTH $end
$var reg 16 9 a_in_imag [15:0] $end
$var reg 16 : a_in_real [15:0] $end
$var reg 2 ; addr [1:0] $end
$var reg 16 < b_in_imag [15:0] $end
$var reg 16 = b_in_imag_d [15:0] $end
$var reg 16 > b_in_real [15:0] $end
$var reg 16 ? b_in_real_d [15:0] $end
$var reg 1 @ en $end
$var reg 2 A p_addr [1:0] $end
$var reg 1 B p_en $end
$var reg 16 C p_rot_im [15:0] $end
$var reg 16 D p_rot_re [15:0] $end
$var reg 11 E valid_pipe [10:0] $end
$scope module butterfly $end
$var wire 16 F a_in_imag [15:0] $end
$var wire 16 G a_in_real [15:0] $end
$var wire 16 H b_in_imag [15:0] $end
$var wire 16 I b_in_real [15:0] $end
$var wire 1 ! clk $end
$var wire 1 @ mode $end
$var wire 1 % rst $end
$var parameter 32 J BITS $end
$var reg 16 K a_out_imag [15:0] $end
$var reg 16 L a_out_real [15:0] $end
$var reg 16 M b_out_imag [15:0] $end
$var reg 16 N b_out_real [15:0] $end
$var reg 16 O next_a_out_imag [15:0] $end
$var reg 16 P next_a_out_real [15:0] $end
$var reg 16 Q next_b_out_imag [15:0] $end
$var reg 16 R next_b_out_real [15:0] $end
$scope begin next_out_logic $end
$upscope $end
$upscope $end
$scope module rot $end
$var wire 16 S a [15:0] $end
$var wire 16 T b [15:0] $end
$var wire 16 U c [15:0] $end
$var wire 1 ! clk $end
$var wire 16 V d [15:0] $end
$var wire 16 W imag_in [15:0] $end
$var wire 16 X real_in [15:0] $end
$var wire 1 % rst $end
$var wire 16 Y real_tw [15:0] $end
$var wire 16 Z imag_tw [15:0] $end
$var parameter 32 [ BITS $end
$var parameter 32 \ DECIMAL $end
$var reg 16 ] a_s1 [15:0] $end
$var reg 32 ^ ac [31:0] $end
$var reg 32 _ ad [31:0] $end
$var reg 16 ` b_s1 [15:0] $end
$var reg 32 a bc [31:0] $end
$var reg 32 b bd [31:0] $end
$var reg 16 c c_s1 [15:0] $end
$var reg 16 d d_s1 [15:0] $end
$var reg 16 e imag_out [15:0] $end
$var reg 16 f out_real_s2 [15:0] $end
$var reg 16 g real_out [15:0] $end
$upscope $end
$scope module tw_rom $end
$var wire 2 h addr [1:0] $end
$var wire 1 ! clk $end
$var wire 1 B en $end
$var wire 1 % rst $end
$var parameter 32 i ADDR_W $end
$var parameter 32 j BITS $end
$var parameter 32 k DEPTH $end
$var reg 16 l tw_im [15:0] $end
$var reg 16 m tw_re [15:0] $end
$upscope $end
$scope begin $ivl_for_loop0 $end
$var integer 32 n i [31:0] $end
$upscope $end
$upscope $end
$upscope $end
$upscope $end
$enddefinitions $end
$comment Show the parameter values. $end
$dumpall
b100 k
b10000 j
b10 i
b1000 \
b10000 [
b10000 J
b100 8
b1011 7
b100 6
b10 5
b1000 ,
b110 +
b11 *
b10000 )
$end
#0
$dumpvars
b100 n
b0 m
b0 l
b0 h
bx g
bx f
bx e
bx d
bx c
bx b
bx a
bx `
bx _
bx ^
bx ]
b0 Z
b0 Y
b0 X
b0 W
b0 V
b0 U
b0 T
b0 S
b0 R
b0 Q
b0 P
b0 O
b0 N
b0 M
b0 L
b0 K
b0 I
b0 H
b0 G
b0 F
b0 E
b0 D
b0 C
0B
b0 A
0@
b0 ?
b0 >
b0 =
b0 <
b0 ;
b0 :
b0 9
b0 4
b0 3
b0 2
b0 1
b0 0
b0 /
b0 .
b0 -
bx (
bx '
0&
0%
0$
b0 #
b0 "
0!
$end
#5000
b0 b
b0 ^
b0 d
b0 c
b0 `
b0 ]
b0 a
b0 _
b0 f
b0 (
b0 e
b0 '
b0 g
b100 n
1!
#10000
0!
#15000
b100 n
1!
#20000
1%
0!
#25000
b100000000 U
b100000000 /
b100000000 Y
b100000000 m
1!
#30000
0!
#35000
b100000000 c
1!
#40000
0!
#45000
1!
#50000
b1 #
1$
0!
#55000
b1 ?
b1 E
b1 -
1!
#60000
b10 #
0!
#65000
b1 R
b1 .
b10 -
b11 E
b1 >
b1 I
b10 ?
1!
#70000
b11 #
0!
#75000
b10 R
b1 3
b1 N
b10 >
b10 I
b11 ?
b1 ;
b111 E
b10 .
b11 -
1!
#80000
b100 #
0!
#85000
b11 R
b11 .
b100 -
b1111 E
b1 A
b1 h
b11 >
b11 I
b100 ?
b10 ;
b10 3
b10 N
1!
#90000
b101 #
0!
#95000
b100 R
b11 3
b11 N
b11101100 U
b11101100 /
b11101100 Y
b11101100 m
b1111111100111110 V
b1111111100111110 0
b1111111100111110 Z
b1111111100111110 l
b10 A
b10 h
b100 >
b100 I
b101 ?
b11 ;
b11111 E
b100 .
b101 -
1!
#100000
b110 #
0!
#105000
b1111111111111011 R
b101 P
b101 .
b110 -
b111111 E
b11 A
b11 h
b101 >
b101 I
b110 ?
1@
b0 ;
b10110101 U
b10110101 /
b10110101 Y
b10110101 m
b1111111010010110 V
b1111111010010110 0
b1111111010010110 Z
b1111111010010110 l
b100 3
b100 N
b1111111100111110 d
b11101100 c
1!
#110000
b111 #
0!
#115000
b111 P
b1111111111111011 3
b1111111111111011 N
b101 1
b101 L
b1100001 U
b1100001 /
b1100001 Y
b1100001 m
b1111111000101000 V
b1111111000101000 0
b1111111000101000 Z
b1111111000101000 l
b1 :
b1 G
b0 A
b0 h
1B
b110 >
b110 I
b111 ?
b1 ;
b1111111 E
b110 .
b111 -
b1111111010010110 d
b10110101 c
1!
#120000
b1000 #
0!
#125000
b1001 P
b111 .
b0 -
b11111111 E
b10 :
b10 G
b1 A
b1 h
b111 >
b111 I
b1000 ?
b101 S
b101 D
b101 X
b10 ;
b100000000 U
b100000000 /
b100000000 Y
b100000000 m
b0 V
b0 0
b0 Z
b0 l
b111 1
b111 L
b1111111000101000 d
b1100001 c
1!
#130000
b1001 #
0!
#135000
b1011 P
b1001 1
b1001 L
b11 :
b11 G
b10 A
b10 h
b1000 >
b1000 I
b1001 ?
b111 S
b111 D
b111 X
b11 ;
b111111111 E
b0 .
b1 -
b10100000000 ^
b0 d
b100000000 c
b101 ]
1!
#140000
b1010 #
0!
#145000
b1001 R
b100 P
b1 .
b10 -
b1111111111 E
b100 :
b100 G
b11 A
b11 h
b1001 >
b1001 I
b1010 ?
b1001 S
b1001 D
b1001 X
0@
b0 ;
b1011 1
b1011 L
b11100000000 ^
b111 ]
b101 f
1!
#150000
b1011 #
0!
#155000
b1010 R
b1111111111111011 P
1&
b1001 3
b1001 N
b100 1
b100 L
b1111111111111011 :
b1111111111111011 G
b0 A
b0 h
0B
b1010 >
b1010 I
b1011 ?
b1011 S
b1011 D
b1011 X
b1 ;
b11111111111 E
b10 .
b11 -
b101 '
b101 g
b111 f
b100100000000 ^
b1001 ]
1!
#160000
b1100 #
0!
#165000
b1011 R
b11 .
b100 -
b1 A
b1 h
b1011 >
b1011 I
b1100 ?
b100 S
b100 D
b100 X
b10 ;
b1010 3
b1010 N
b1111111111111011 1
b1111111111111011 L
b101100000000 ^
b1011 ]
b1001 f
b111 '
b111 g
1!
#170000
b1101 #
0!
#175000
b1100 R
b1011 3
b1011 N
b11101100 U
b11101100 /
b11101100 Y
b11101100 m
b1111111100111110 V
b1111111100111110 0
b1111111100111110 Z
b1111111100111110 l
b10 A
b10 h
b1100 >
b1100 I
b1101 ?
b1111111111111011 S
b1111111111111011 D
b1111111111111011 X
b11 ;
b100 .
b101 -
b1001 '
b1001 g
b1011 f
b10000000000 ^
b100 ]
1!
#180000
b1110 #
0!
#185000
b1111111111101110 R
b1000 P
b101 .
b110 -
b11 A
b11 h
b1101 >
b1101 I
b1110 ?
1@
b0 ;
b10110101 U
b10110101 /
b10110101 Y
b10110101 m
b1111111010010110 V
b1111111010010110 0
b1111111010010110 Z
b1111111010010110 l
b1100 3
b1100 N
b11111111111111111111101101100100 ^
b1111111100111110 d
b11101100 c
b1111111111111011 ]
b100 f
b1011 '
b1011 g
1!
#190000
b1111 #
0!
#195000
b1111111111111011 R
b10111 P
b1111111111101110 3
b1111111111101110 N
b1000 1
b1000 L
b1100001 U
b1100001 /
b1100001 Y
b1100001 m
b1111111000101000 V
b1111111000101000 0
b1111111000101000 Z
b1111111000101000 l
b1001 :
b1001 G
b0 A
b0 h
1B
b1110 >
b1110 I
b1111 ?
b1 ;
b110 .
b111 -
b100 '
b100 g
b1111001010 _
b1111111111111011 f
b11111111111111111111110001110111 ^
b1111111010010110 d
b10110101 c
1!
#200000
b10000 #
0!
#205000
b11001 P
b111 .
b0 -
b1010 :
b1010 G
b1 A
b1 h
b1111 >
b1111 I
b10000 ?
b1000 S
b1000 D
b1000 X
b10 ;
b100000000 U
b100000000 /
b100000000 Y
b100000000 m
b0 V
b0 0
b0 Z
b0 l
b1111111111111011 3
b1111111111111011 N
b10111 1
b10111 L
b11111111111111111111111000011011 ^
b1111111000101000 d
b1100001 c
b11100010010 _
b1111111111111100 f
b100 (
b100 e
b1111111111111011 '
b1111111111111011 g
1!
#210000
b10001 #
0!
#215000
b11011 P
b11001 1
b11001 L
b1011 :
b1011 G
b10 A
b10 h
b10000 >
b10000 I
b10001 ?
b10111 S
b10111 D
b10111 X
b11 ;
b0 .
b1 -
b111 (
b111 e
b1111111111111100 '
b1111111111111100 g
b100100111000 _
b1111111111111110 f
b100000000000 ^
b0 d
b100000000 c
b1000 ]
1!
#220000
b10010 #
0!
#225000
b10001 R
b1100 P
b1 .
b10 -
b1100 :
b1100 G
b11 A
b11 h
b10001 >
b10001 I
b10010 ?
b11001 S
b11001 D
b11001 X
0@
b0 ;
b11011 1
b11011 L
b1011100000000 ^
b10111 ]
b0 _
b1000 f
b1001 (
b1001 e
b1111111111111110 '
b1111111111111110 g
1!
#230000
b10011 #
0!
#235000
b10010 R
b1111111111101110 P
b10001 3
b10001 N
b1100 1
b1100 L
b1111111111101110 :
b1111111111101110 G
b0 A
b0 h
0B
b10010 >
b10010 I
b10011 ?
b11011 S
b11011 D
b11011 X
b1 ;
b10 .
b11 -
b0 (
b0 e
b1000 '
b1000 g
b10111 f
b1100100000000 ^
b11001 ]
1!
#240000
b10100 #
0!
#245000
b10011 R
b1111111111111011 P
b11 .
b100 -
b1111111111111011 :
b1111111111111011 G
b1 A
b1 h
b10011 >
b10011 I
b10100 ?
b1100 S
b1100 D
b1100 X
b10 ;
b10010 3
b10010 N
b1111111111101110 1
b1111111111101110 L
b1101100000000 ^
b11011 ]
b11001 f
b10111 '
b10111 g
1!
#250000
b10101 #
0!
#255000
b10100 R
b10011 3
b10011 N
b1111111111111011 1
b1111111111111011 L
b11101100 U
b11101100 /
b11101100 Y
b11101100 m
b1111111100111110 V
b1111111100111110 0
b1111111100111110 Z
b1111111100111110 l
b10 A
b10 h
b10100 >
b10100 I
b10101 ?
b1111111111101110 S
b1111111111101110 D
b1111111111101110 X
b11 ;
b100 .
b101 -
b11001 '
b11001 g
b11011 f
b110000000000 ^
b1100 ]
1!
#260000
b10110 #
0!
#265000
b1111111111100110 R
b10000 P
b101 .
b110 -
b11 A
b11 h
b10101 >
b10101 I
b10110 ?
b1111111111111011 S
b1111111111111011 D
b1111111111111011 X
1@
b0 ;
b10110101 U
b10110101 /
b10110101 Y
b10110101 m
b1111111010010110 V
b1111111010010110 0
b1111111010010110 Z
b1111111010010110 l
b10100 3
b10100 N
b11111111111111111110111101101000 ^
b1111111100111110 d
b11101100 c
b1111111111101110 ]
b1100 f
b11011 '
b11011 g
1!
#270000
b10111 #
0!
#275000
b1111111111111011 R
b100111 P
b1111111111100110 3
b1111111111100110 N
b10000 1
b10000 L
b1100001 U
b1100001 /
b1100001 Y
b1100001 m
b1111111000101000 V
b1111111000101000 0
b1111111000101000 Z
b1111111000101000 l
b10001 :
b10001 G
b0 A
b0 h
1B
b10110 >
b10110 I
b10111 ?
b1 ;
b110 .
b111 -
b1100 '
b1100 g
b110110100100 _
b1111111111101111 f
b11111111111111111111110001110111 ^
b1111111010010110 d
b10110101 c
b1111111111111011 ]
1!
#280000
b11000 #
0!
#285000
b101001 P
b111 .
b0 -
b10010 :
b10010 G
b1 A
b1 h
b10111 >
b10111 I
b11000 ?
b10000 S
b10000 D
b10000 X
b10 ;
b100000000 U
b100000000 /
b100000000 Y
b100000000 m
b0 V
b0 0
b0 Z
b0 l
b1111111111111011 3
b1111111111111011 N
b100111 1
b100111 L
b11111111111111111111111000011011 ^
b1111111000101000 d
b1100001 c
b11100010010 _
b1111111111111100 f
b1110 (
b1110 e
b1111111111101111 '
b1111111111101111 g
1!
#290000
b11001 #
0!
#295000
b101011 P
b101001 1
b101001 L
b10011 :
b10011 G
b10 A
b10 h
b11000 >
b11000 I
b11001 ?
b100111 S
b100111 D
b100111 X
b11 ;
b0 .
b1 -
b111 (
b111 e
b1111111111111100 '
b1111111111111100 g
b100100111000 _
b1111111111111110 f
b1000000000000 ^
b0 d
b100000000 c
b10000 ]
1!
#300000
b11010 #
0!
#305000
b11001 R
b10100 P
b1 .
b10 -
b10100 :
b10100 G
b11 A
b11 h
b11001 >
b11001 I
b11010 ?
b101001 S
b101001 D
b101001 X
0@
b0 ;
b101011 1
b101011 L
b10011100000000 ^
b100111 ]
b0 _
b10000 f
b1001 (
b1001 e
b1111111111111110 '
b1111111111111110 g
1!
#310000
b11011 #
0!
#315000
b11010 R
b1111111111100110 P
b11001 3
b11001 N
b10100 1
b10100 L
b1111111111100110 :
b1111111111100110 G
b0 A
b0 h
0B
b11010 >
b11010 I
b11011 ?
b101011 S
b101011 D
b101011 X
b1 ;
b10 .
b11 -
b0 (
b0 e
b10000 '
b10000 g
b100111 f
b10100100000000 ^
b101001 ]
1!
#320000
b11100 #
0!
#325000
b11011 R
b1111111111111011 P
b11 .
b100 -
b1111111111111011 :
b1111111111111011 G
b1 A
b1 h
b11011 >
b11011 I
b11100 ?
b10100 S
b10100 D
b10100 X
b10 ;
b11010 3
b11010 N
b1111111111100110 1
b1111111111100110 L
b10101100000000 ^
b101011 ]
b101001 f
b100111 '
b100111 g
1!
#330000
b11101 #
0!
#335000
b11100 R
b11011 3
b11011 N
b1111111111111011 1
b1111111111111011 L
b11101100 U
b11101100 /
b11101100 Y
b11101100 m
b1111111100111110 V
b1111111100111110 0
b1111111100111110 Z
b1111111100111110 l
b10 A
b10 h
b11100 >
b11100 I
b11101 ?
b1111111111100110 S
b1111111111100110 D
b1111111111100110 X
b11 ;
b100 .
b101 -
b101001 '
b101001 g
b101011 f
b1010000000000 ^
b10100 ]
1!
#340000
b11110 #
0!
#345000
b1111111111011110 R
b11000 P
b101 .
b110 -
b11 A
b11 h
b11101 >
b11101 I
b11110 ?
b1111111111111011 S
b1111111111111011 D
b1111111111111011 X
1@
b0 ;
b10110101 U
b10110101 /
b10110101 Y
b10110101 m
b1111111010010110 V
b1111111010010110 0
b1111111010010110 Z
b1111111010010110 l
b11100 3
b11100 N
b11111111111111111110100000001000 ^
b1111111100111110 d
b11101100 c
b1111111111100110 ]
b10100 f
b101011 '
b101011 g
1!
#350000
b11111 #
0!
#355000
b1111111111111011 R
b110111 P
b1111111111011110 3
b1111111111011110 N
b11000 1
b11000 L
b1100001 U
b1100001 /
b1100001 Y
b1100001 m
b1111111000101000 V
b1111111000101000 0
b1111111000101000 Z
b1111111000101000 l
b11001 :
b11001 G
b0 A
b0 h
1B
b11110 >
b11110 I
b11111 ?
b1 ;
b110 .
b111 -
b10100 '
b10100 g
b1001110110100 _
b1111111111101000 f
b11111111111111111111110001110111 ^
b1111111010010110 d
b10110101 c
b1111111111111011 ]
1!
#360000
b100000 #
0!
#365000
b111001 P
b111 .
b0 -
b11010 :
b11010 G
b1 A
b1 h
b11111 >
b11111 I
b100000 ?
b11000 S
b11000 D
b11000 X
b10 ;
b100000000 U
b100000000 /
b100000000 Y
b100000000 m
b0 V
b0 0
b0 Z
b0 l
b1111111111111011 3
b1111111111111011 N
b110111 1
b110111 L
b11111111111111111111111000011011 ^
b1111111000101000 d
b1100001 c
b11100010010 _
b1111111111111100 f
b10100 (
b10100 e
b1111111111101000 '
b1111111111101000 g
1!
#370000
b100001 #
0!
#375000
b111011 P
b111001 1
b111001 L
b11011 :
b11011 G
b10 A
b10 h
b100000 >
b100000 I
b100001 ?
b110111 S
b110111 D
b110111 X
b11 ;
b0 .
b1 -
b111 (
b111 e
b1111111111111100 '
b1111111111111100 g
b100100111000 _
b1111111111111110 f
b1100000000000 ^
b0 d
b100000000 c
b11000 ]
1!
#380000
b100010 #
0!
#385000
b100001 R
b11100 P
b1 .
b10 -
b11100 :
b11100 G
b11 A
b11 h
b100001 >
b100001 I
b100010 ?
b111001 S
b111001 D
b111001 X
0@
b0 ;
b111011 1
b111011 L
b11011100000000 ^
b110111 ]
b0 _
b11000 f
b1001 (
b1001 e
b1111111111111110 '
b1111111111111110 g
1!
#390000
b100011 #
0!
#395000
b100010 R
b1111111111011110 P
b100001 3
b100001 N
b11100 1
b11100 L
b1111111111011110 :
b1111111111011110 G
b0 A
b0 h
0B
b100010 >
b100010 I
b100011 ?
b111011 S
b111011 D
b111011 X
b1 ;
b10 .
b11 -
b0 (
b0 e
b11000 '
b11000 g
b110111 f
b11100100000000 ^
b111001 ]
1!
#400000
b100100 #
0!
#405000
b100011 R
b1111111111111011 P
b11 .
b100 -
b1111111111111011 :
b1111111111111011 G
b1 A
b1 h
b100011 >
b100011 I
b100100 ?
b11100 S
b11100 D
b11100 X
b10 ;
b100010 3
b100010 N
b1111111111011110 1
b1111111111011110 L
b11101100000000 ^
b111011 ]
b111001 f
b110111 '
b110111 g
1!
#410000
b100101 #
0!
#415000
b100100 R
b100011 3
b100011 N
b1111111111111011 1
b1111111111111011 L
b11101100 U
b11101100 /
b11101100 Y
b11101100 m
b1111111100111110 V
b1111111100111110 0
b1111111100111110 Z
b1111111100111110 l
b10 A
b10 h
b100100 >
b100100 I
b100101 ?
b1111111111011110 S
b1111111111011110 D
b1111111111011110 X
b11 ;
b100 .
b101 -
b111001 '
b111001 g
b111011 f
b1110000000000 ^
b11100 ]
1!
#420000
b100110 #
0!
#425000
b1111111111010110 R
b100000 P
b101 .
b110 -
b11 A
b11 h
b100101 >
b100101 I
b100110 ?
b1111111111111011 S
b1111111111111011 D
b1111111111111011 X
1@
b0 ;
b10110101 U
b10110101 /
b10110101 Y
b10110101 m
b1111111010010110 V
b1111111010010110 0
b1111111010010110 Z
b1111111010010110 l
b100100 3
b100100 N
b11111111111111111110000010101000 ^
b1111111100111110 d
b11101100 c
b1111111111011110 ]
b11100 f
b111011 '
b111011 g
1!
#430000
b100111 #
0!
#435000
b1111111111111011 R
b1000111 P
b1111111111010110 3
b1111111111010110 N
b100000 1
b100000 L
b1100001 U
b1100001 /
b1100001 Y
b1100001 m
b1111111000101000 V
b1111111000101000 0
b1111111000101000 Z
b1111111000101000 l
b100001 :
b100001 G
b0 A
b0 h
1B
b100110 >
b100110 I
b100111 ?
b1 ;
b110 .
b111 -
b11100 '
b11100 g
b1100111000100 _
b1111111111100001 f
b11111111111111111111110001110111 ^
b1111111010010110 d
b10110101 c
b1111111111111011 ]
1!
#440000
b101000 #
0!
#445000
b1001001 P
b111 .
b0 -
b100010 :
b100010 G
b1 A
b1 h
b100111 >
b100111 I
b101000 ?
b100000 S
b100000 D
b100000 X
b10 ;
b100000000 U
b100000000 /
b100000000 Y
b100000000 m
b0 V
b0 0
b0 Z
b0 l
b1111111111111011 3
b1111111111111011 N
b1000111 1
b1000111 L
b11111111111111111111111000011011 ^
b1111111000101000 d
b1100001 c
b11100010010 _
b1111111111111100 f
b11010 (
b11010 e
b1111111111100001 '
b1111111111100001 g
1!
#450000
b101001 #
0!
#455000
b1001011 P
b1001001 1
b1001001 L
b100011 :
b100011 G
b10 A
b10 h
b101000 >
b101000 I
b101001 ?
b1000111 S
b1000111 D
b1000111 X
b11 ;
b0 .
b1 -
b111 (
b111 e
b1111111111111100 '
b1111111111111100 g
b100100111000 _
b1111111111111110 f
b10000000000000 ^
b0 d
b100000000 c
b100000 ]
1!
#460000
b101010 #
0!
#465000
b101001 R
b100100 P
b1 .
b10 -
b100100 :
b100100 G
b11 A
b11 h
b101001 >
b101001 I
b101010 ?
b1001001 S
b1001001 D
b1001001 X
0@
b0 ;
b1001011 1
b1001011 L
b100011100000000 ^
b1000111 ]
b0 _
b100000 f
b1001 (
b1001 e
b1111111111111110 '
b1111111111111110 g
1!
#470000
b101011 #
0!
#475000
b101010 R
b1111111111010110 P
b101001 3
b101001 N
b100100 1
b100100 L
b1111111111010110 :
b1111111111010110 G
b0 A
b0 h
0B
b101010 >
b101010 I
b101011 ?
b1001011 S
b1001011 D
b1001011 X
b1 ;
b10 .
b11 -
b0 (
b0 e
b100000 '
b100000 g
b1000111 f
b100100100000000 ^
b1001001 ]
1!
#480000
b101100 #
0!
#485000
b101011 R
b1111111111111011 P
b11 .
b100 -
b1111111111111011 :
b1111111111111011 G
b1 A
b1 h
b101011 >
b101011 I
b101100 ?
b100100 S
b100100 D
b100100 X
b10 ;
b101010 3
b101010 N
b1111111111010110 1
b1111111111010110 L
b100101100000000 ^
b1001011 ]
b1001001 f
b1000111 '
b1000111 g
1!
#490000
b101101 #
0!
#495000
b101100 R
b101011 3
b101011 N
b1111111111111011 1
b1111111111111011 L
b11101100 U
b11101100 /
b11101100 Y
b11101100 m
b1111111100111110 V
b1111111100111110 0
b1111111100111110 Z
b1111111100111110 l
b10 A
b10 h
b101100 >
b101100 I
b101101 ?
b1111111111010110 S
b1111111111010110 D
b1111111111010110 X
b11 ;
b100 .
b101 -
b1001001 '
b1001001 g
b1001011 f
b10010000000000 ^
b100100 ]
1!
#500000
b101110 #
0!
#505000
b1111111111001110 R
b101000 P
b101 .
b110 -
b11 A
b11 h
b101101 >
b101101 I
b101110 ?
b1111111111111011 S
b1111111111111011 D
b1111111111111011 X
1@
b0 ;
b10110101 U
b10110101 /
b10110101 Y
b10110101 m
b1111111010010110 V
b1111111010010110 0
b1111111010010110 Z
b1111111010010110 l
b101100 3
b101100 N
b11111111111111111101100101001000 ^
b1111111100111110 d
b11101100 c
b1111111111010110 ]
b100100 f
b1001011 '
b1001011 g
1!
#510000
b101111 #
0!
#515000
b1111111111111011 R
b1010111 P
b1111111111001110 3
b1111111111001110 N
b101000 1
b101000 L
b1100001 U
b1100001 /
b1100001 Y
b1100001 m
b1111111000101000 V
b1111111000101000 0
b1111111000101000 Z
b1111111000101000 l
b101001 :
b101001 G
b0 A
b0 h
1B
b101110 >
b101110 I
b101111 ?
b1 ;
b110 .
b111 -
b100100 '
b100100 g
b1111111010100 _
b1111111111011001 f
b11111111111111111111110001110111 ^
b1111111010010110 d
b10110101 c
b1111111111111011 ]
1!
#520000
b110000 #
0!
#525000
b1011001 P
b111 .
b0 -
b101010 :
b101010 G
b1 A
b1 h
b101111 >
b101111 I
b110000 ?
b101000 S
b101000 D
b101000 X
b10 ;
b100000000 U
b100000000 /
b100000000 Y
b100000000 m
b0 V
b0 0
b0 Z
b0 l
b1111111111111011 3
b1111111111111011 N
b1010111 1
b1010111 L
b11111111111111111111111000011011 ^
b1111111000101000 d
b1100001 c
b11100010010 _
b1111111111111100 f
b100000 (
b100000 e
b1111111111011001 '
b1111111111011001 g
1!
#530000
b110001 #
0!
#535000
b1011011 P
b1011001 1
b1011001 L
b101011 :
b101011 G
b10 A
b10 h
b110000 >
b110000 I
b110001 ?
b1010111 S
b1010111 D
b1010111 X
b11 ;
b0 .
b1 -
b111 (
b111 e
b1111111111111100 '
b1111111111111100 g
b100100111000 _
b1111111111111110 f
b10100000000000 ^
b0 d
b100000000 c
b101000 ]
1!
#540000
b110010 #
0!
#545000
b110001 R
b101100 P
b1 .
b10 -
b101100 :
b101100 G
b11 A
b11 h
b110001 >
b110001 I
b110010 ?
b1011001 S
b1011001 D
b1011001 X
0@
b0 ;
b1011011 1
b1011011 L
b101011100000000 ^
b1010111 ]
b0 _
b101000 f
b1001 (
b1001 e
b1111111111111110 '
b1111111111111110 g
1!
#550000
b110011 #
0!
#555000
b110010 R
b1111111111001110 P
b110001 3
b110001 N
b101100 1
b101100 L
b1111111111001110 :
b1111111111001110 G
b0 A
b0 h
0B
b110010 >
b110010 I
b110011 ?
b1011011 S
b1011011 D
b1011011 X
b1 ;
b10 .
b11 -
b0 (
b0 e
b101000 '
b101000 g
b1010111 f
b101100100000000 ^
b1011001 ]
1!
#560000
b110100 #
0!
#565000
b110011 R
b1111111111111011 P
b11 .
b100 -
b1111111111111011 :
b1111111111111011 G
b1 A
b1 h
b110011 >
b110011 I
b110100 ?
b101100 S
b101100 D
b101100 X
b10 ;
b110010 3
b110010 N
b1111111111001110 1
b1111111111001110 L
b101101100000000 ^
b1011011 ]
b1011001 f
b1010111 '
b1010111 g
1!
#570000
b110101 #
0!
#575000
b110100 R
b110011 3
b110011 N
b1111111111111011 1
b1111111111111011 L
b11101100 U
b11101100 /
b11101100 Y
b11101100 m
b1111111100111110 V
b1111111100111110 0
b1111111100111110 Z
b1111111100111110 l
b10 A
b10 h
b110100 >
b110100 I
b110101 ?
b1111111111001110 S
b1111111111001110 D
b1111111111001110 X
b11 ;
b100 .
b101 -
b1011001 '
b1011001 g
b1011011 f
b10110000000000 ^
b101100 ]
1!
#580000
b110110 #
0!
#585000
b1111111111000110 R
b110000 P
b101 .
b110 -
b11 A
b11 h
b110101 >
b110101 I
b110110 ?
b1111111111111011 S
b1111111111111011 D
b1111111111111011 X
1@
b0 ;
b10110101 U
b10110101 /
b10110101 Y
b10110101 m
b1111111010010110 V
b1111111010010110 0
b1111111010010110 Z
b1111111010010110 l
b110100 3
b110100 N
b11111111111111111101000111101000 ^
b1111111100111110 d
b11101100 c
b1111111111001110 ]
b101100 f
b1011011 '
b1011011 g
1!
#590000
b110111 #
0!
#595000
b1111111111111011 R
b1100111 P
b1111111111000110 3
b1111111111000110 N
b110000 1
b110000 L
b1100001 U
b1100001 /
b1100001 Y
b1100001 m
b1111111000101000 V
b1111111000101000 0
b1111111000101000 Z
b1111111000101000 l
b110001 :
b110001 G
b0 A
b0 h
1B
b110110 >
b110110 I
b110111 ?
b1 ;
b110 .
b111 -
b101100 '
b101100 g
b10010111100100 _
b1111111111010010 f
b11111111111111111111110001110111 ^
b1111111010010110 d
b10110101 c
b1111111111111011 ]
1!
#600000
b111000 #
0!
#605000
b1101001 P
b111 .
b0 -
b110010 :
b110010 G
b1 A
b1 h
b110111 >
b110111 I
b111000 ?
b110000 S
b110000 D
b110000 X
b10 ;
b100000000 U
b100000000 /
b100000000 Y
b100000000 m
b0 V
b0 0
b0 Z
b0 l
b1111111111111011 3
b1111111111111011 N
b1100111 1
b1100111 L
b11111111111111111111111000011011 ^
b1111111000101000 d
b1100001 c
b11100010010 _
b1111111111111100 f
b100110 (
b100110 e
b1111111111010010 '
b1111111111010010 g
1!
#610000
b111001 #
0!
#615000
b1101011 P
b1101001 1
b1101001 L
b110011 :
b110011 G
b10 A
b10 h
b111000 >
b111000 I
b111001 ?
b1100111 S
b1100111 D
b1100111 X
b11 ;
b0 .
b1 -
b111 (
b111 e
b1111111111111100 '
b1111111111111100 g
b100100111000 _
b1111111111111110 f
b11000000000000 ^
b0 d
b100000000 c
b110000 ]
1!
#620000
b111010 #
0!
#625000
b111001 R
b110100 P
b1 .
b10 -
b110100 :
b110100 G
b11 A
b11 h
b111001 >
b111001 I
b111010 ?
b1101001 S
b1101001 D
b1101001 X
0@
b0 ;
b1101011 1
b1101011 L
b110011100000000 ^
b1100111 ]
b0 _
b110000 f
b1001 (
b1001 e
b1111111111111110 '
b1111111111111110 g
1!
#630000
b111011 #
0!
#635000
b111010 R
b1111111111000110 P
b111001 3
b111001 N
b110100 1
b110100 L
b1111111111000110 :
b1111111111000110 G
b0 A
b0 h
0B
b111010 >
b111010 I
b111011 ?
b1101011 S
b1101011 D
b1101011 X
b1 ;
b10 .
b11 -
b0 (
b0 e
b110000 '
b110000 g
b1100111 f
b110100100000000 ^
b1101001 ]
1!
#640000
b111100 #
0!
#645000
b111011 R
b1111111111111011 P
b11 .
b100 -
b1111111111111011 :
b1111111111111011 G
b1 A
b1 h
b111011 >
b111011 I
b111100 ?
b110100 S
b110100 D
b110100 X
b10 ;
b111010 3
b111010 N
b1111111111000110 1
b1111111111000110 L
b110101100000000 ^
b1101011 ]
b1101001 f
b1100111 '
b1100111 g
1!
#650000
b111101 #
0!
